/* XPM */
static char *cimg1236_xpm[] = {
"128 128 16 1",
"0	c #000000",
"1	c #1D2B53",
"2	c #7E2553",
"3	c #008751",
"4	c #AB5236",
"5	c #5F574F",
"6	c #C2C3C7",
"7	c #FFF1E8",
"8	c #FF004D",
"9	c #FFA300",
"A	c #FFEC27",
"B	c #00E436",
"C	c #29ADFF",
"D	c #83769C",
"E	c #FF77A8",
"F	c #FFCCAA",
"0553DD3DDDDDDDDDD333354446766666D6666DD6D6D6D3D66DDDD33DD35D35D35553333B3BDB666666D66D303505333BB333300016333550505530DD35510000",
"5033D3D3DDBDDBD6B3B3333BDD67766666D66DB6D36D6D3DD33DDD53D33DD33D33D55333333666776D6B6D336D0553355333505056333535303553D333500000",
"03533DDBDD6BD6B33333B3B66BD66666BD6B6D6BDDB6D3DBDDB6D33D33DD355D3DD35533B33B6B776BD6B633D335333553335000D6B55355030353D353550000",
"35555DBDDDBD6D3333333BDD6D66B66666D6D3666BDD6B3D63D36D33D433D33533D353543BD6BD67633BD66330355335535505006B43553005535DB435500000",
"533D33DDBD6D3DB33B33346BD6BD6B66BD6BDB6DDDBDD3DDB4DBD33D33DD355343D355354666BD6B6333B66355303335035000056B3535535533565535500000",
"53D3DDD3DD6BD3B334333B6D6BD6D6B66DB6DD336BDD6DBDD3DDD43D433D343D3343343533DB333BB6B33B6D33333353350505536435535503553D5345000000",
"35D3DBDDBDBDB3333B3346DD6D6BD6D66BDDBDDBD6DBD3DDB34BD33DB433433343353DD355567B33333333BD333333533500053D633353503533633435500500",
"553DBDDBDD6333333333B6DBB6BD6BD6B6DDDBDDDDB6D34BD43D3D33D3DD333D33D553353533D7633334BB3333333005350050066B3535503534B34330000000",
"35DD4DDDDB33334B33346BDB6BD6D6BD6DBDD3BDD3D6BD3DD33DB43433433433DD3343D353D53D63363333533333550300500056B5553553553DD33B55000050",
"53D3DBDDB43333B33B3B6DD66BBBBD66DBDDBDDDBDBDD3DDB33DD35BDD3D3343343533345355355B663333333333350355050056335350350336434450500350",
"5D3DB4DB33B343B43346DBD6B66BB6BB6DBDDBDDDDDBD334D343D3D3D3BD43343D33433535D355353B3333B333333353500050D6B5535503533B34B500500DD0",
"33DBDDD33333333334BDDDBDDDB66B6BBBDBDDB3DB3DD34BD33DB434334D33333D3433D55335535555433343333335330050006B43355355356D4BD500300330",
"5DD43BB33333B33336DB6D6DD6DDB66B6BDD3D3DD3DDB43DD3D3D3334333D553D33343D35535353555533333333333435005056B343535030363343500500501",
"33BDD433334B43BBDBDDDBD6B6B6BBBBBAB6D334B34BD33DB34BD433D33433343343343535535535533443334334BBA6000503643355305534B34B3050330050",
"333BD33333B33B4DDDB6DBBBABBBABAABBB4B3433D3D3343D33D334333DD3D33DD3333D343D55355353354B3344BAAE405000D6B355353533643B45503330030",
"555333B33333B4DDBDD6BABABBABBABBBBBBD3D3343D3433D343D33D3D4BD3343D35534335B43535535553433334EEF5005056B43535505536B4D55000350000",
"353533334B34DB6DD6ABBBABBBBABBBBBAB4DB343333D33DB433D334363543334B43343355535535354335544344E665005056B4335353003D3BD35000000003",
"333433334BDDBDDDBABBABBBBBBBBBBBBBBB43333343334D33D4B34333D633433DD533D553553553553355334F4EF6D0050056B3553505356B34D33503305005",
"5DDD33343DBDDDBABBBBBBBBABBBBB9BBBBBB43D33343333D33DD3334366BD34333343335334335535553553344F6635500066335535355364B4335503500003",
"3D34B33DDBDDDABABBABBABBBBBB4BB4BBABB34B343333433433433433336D33D3D5334334335535535355355336665005056BB453555334634B35530003003D",
"D3DB434BD4BDBBABBBBBBBB4B4BBBBBBB4BB4B533343D3B433333433535D43334333DD34335535535535535553DD66050005643335530536334D550030035036",
"3D4DD4BD43DABABBBBBBAB4BBBBB4B4B4BB66645B4333343D33DD33D3433333433D436D33DD35535535535555553335005556B435353553634B3530005000553",
"D3BD3DDBDBBBABBBABBBBBBB4B4BBABBAA6666333334333D343343D6334334333D336333433433553553553005555355500D6B34355530DB4B65500003300300",
"34D43B4DDABABBBBBBB4BBB4BBBABBBBAB6B6B643343343333433333533343343343363555BFD35535535055000555555056B43533035364B435003500330030",
"D3B34DB4BBBBBBAB4B4B444BBBBBABA6BD66466B43BD3343333434353433D3D33D3346335D66635355553000000005355556B343555503634B45030003535033",
"4D434DDABBABBBB4344445444444BB6D3D6B66B633433D333433D335334333D3343336355B646335533505350050055555364B4335355B633630050000353333",
"3D34BBBBABBB445555353535444444BBD66DB64663334334334333433334334333433FD3343433555353550500000005356B343535505643B45003000035033B",
"43346BABBB344555555554555333D4644BD66D6B64333B4333334353343334333DB4333D353335535535303500005000556BB433555536346305030505335536",
"334BBABBB42555444444445444D44B64444B64B66A334333D333343533433334334BD4B45353535355555300500500500564343355356B3B450350000D633556",
"34BBABB3455544445445545555444466B4344B6666633433343433334333D343343353D3533555353535305505000005536B43353553644BD5055000366D5036",
"5DBABB44DD6444545554555555D446645354D44B6B64B34B43334335343343333343355335535355535355300000500006B3343443546B46355030033DBD533B",
"3BABBB5D3D445444454555455534464555554D3466B64333D33333433334333345335335535535353355530550050000364B43366356B34B5003000533330036",
"BABB44D664444444555422555544B355444444644DDBB43B433433343333D53433D343343353553555353050050005005B34B36B4346B4BD550050033553003D",
"ABBBDDDD6444B434444454545544635455543444B4463BD4B343D333334533533333D35335355353535353535050500534B3346445B64B650500305353305333",
"BBB446664B4444444552252555544324545543444644D3333D3334334333433543433433433535553550305000505500DB443663346B44635350305333350533",
"BB44D3664444443444424244555445422244444444B464334B4333433D33334333343334334355335353535305005505B4B3664B436D4BB33530533335BD3330",
"BB44646B44435444445555555554354244244544444644B34334333343543334333353333533435553053500300555554B446B4D346BB6B46DD3553543633335",
"BA4444444444444B4455254555554555554554444444964434B4334333343533334334534553353535530535055000553336D5B446B346ABBDD3D553B4353355",
"B4444446B4694B444454424255445455054455355444B964A34B533433443343D3343333434335353355350300500053B4B6434DB64B4B466D3D63BB33555350",
"B44444A449646A4445554254255545555455534333444B44446433433334433334333343B443555355353530503555534364B46346B4B634DB3DD33355555500",
"B4446444964666434554544255554452550534BB435444446646333343343343334335353333535353505350300300533B64DB446B446BDBB453555550000050",
"B49449B4B49B4434445445545455544555534B34B435449444B964343333433343334333433535353533535033355034366436436B46B5664555366505003000",
"B496449644B444344554554545555445553B4333B43554444A434633443443333433343353435355355355305305353346B4B6346B4B45464335367603030005",
"B4469B44646A4344B44544425455555444B4BB4B4B43344436F4B444433344343D435334333335335535530505535553B64B444B64B6500533D5337730335005",
"B444A6B9B44435434445525422455444B44B44B43B45544436F444DB44334B343B343353435535535353555003353553644D6346B4B65050556650D6B3330000",
"BB94494444455434344454254425554445344B43B4B5344456A644444D43343D9A43343334353535353535335533535364B4B4B6D4B45000005BD333B3350000",
"3B3493443BBB454343554242254554544D35554D4D4554443644449DD4643439463333433333535355355350033BD5343B464346BB6400000005543333500500",
"33B3BB4BBBA33334555442542454545B444555346B4344455A44B4444B43434944A433333433435353533555553455364346B46B346305005000055503500050",
"B33BBBBBAA3335555554554545445554D446354344B4D44546444444444449945449433433433433553553533535534B436434B44BB500000050005550005555",
"B334B4BBAB33553345344454454445544B44654434444343464466B4944339455443B44333333434353535053533553DB44B4364B64000500000000055005300",
"33BB4BAAB335033354544544544444554D44B45544444B44B9694644D434945444446466466F66F666646D4DD443434D4B643B43B6400005000500000533DD35",
"334BBBBB305533335433455455454443464444554444B444536694943434444224444D4464444664469464464646D4D4D44B444B4D5050005000000005543335",
"3BB4BAA33303333335554454454545344344663543444444455BFA4644444452422434B4433553433434434434443434344DB4B4B65000000005005005055550",
"33BBAB3335333333334534544444445344B44A334444B44444423669634555242244554554445444554334444443444353344D44640050055500000000505500",
"3B4BAB3530333333335454455454454546494B44444444444444456A6493554452455545454344B4445444444344444555466A43535000555000000000000053",
"BBBAB53353333333B3553545545434443464463434444444444444534664522422454554555344635444455B444454544536F445545550000500500500000005",
"3BABD35033333B33333455444544444344B496544444494A44944442544455222255445555554645445555555444454555566444355555000000050000500500",
"BABD33353333333B333553445444344444644B4544444B4446444444444346444444545544454434344555554434444524536444455555550050000000000000",
"BBD335333333B33333355534454444B4334444344444944444944AD444433666F346444444434B443443554B4B4554525555A4D3454555550005000500000050",
"D3D3335333B333333333453445444444544464444B444464A44B644444444554643466A64444445444553434D4454554250DF444455555555000000000050000",
"3B4335333333333333335555444444444B444644444AB4464B44454444B544443455534B34B64434443543B4DB455555245D6444445522555550050050000000",
"34B33333B33B33333333354344344B44346444344444444B44464434444554B453445554455533444554344B44B4552505564545354222255555000000005000",
"3D3353B333333333333334534944444443449B4444444444445DA4444B455444544544244425544345543D4D4D44555555044434555445220555000000000000",
"36B33B33333333353333B3545B443444443D444444A4344445453644445554455344542544445444545B64B4B34B505554444445555552252555500500500055",
"3543B3333333333333333B555443443444344444B44B544335555364B4554445354555445444554B444444464B44455554444355452252254205500000000000",
"555333B333333353B33B335554B444444434FB444465544434354546455255455554554445444444444543553444645444444555445425222450550050050000",
"055B3333333333333333335555443444443444444465445B434354544554425555455554454443444355545555334A4444645555544522544545555000000000",
"0533B33333335333333B353555433444B444444344454454D343044435524455054244544434445344455555345D444443455542554225554544555000000500",
"053333333335333333343553555434444434443454354534B434544B55522450054444434444444544345556F444444D44355422555422225444505500500000",
"533B3333335333343B33555343554343444445554445455B4BD3344452544550354DD3354B94B4443445344F4444643454554542225544225442555500000000",
"5333333333533333B35533053555543444345554454345544D4B5445554445505543555444444445554366644446444354455544552054455544545550005000",
"33333333353333B335555035434553455345445534455544B4345443555555555554555554D444444554DA444464434445442254222555445554445550500000",
"333333335333333355533053435554454454455544445333DB4D444D5554550555420553544B444455546444B444344344454255420525442554455550000000",
"3333333333333335550350343534554454545455344555BD443444433524550055455434344444444553A494464434445444422252205554455544D555000500",
"33333335333B3335530530543555554455445555544454433554446343555050555533434344444454554466444344444554425252245554445443D555000000",
"333333353333335550330353553543545445442554344B5555444443453553005555434334433434445349464434434444544252055445444455444D55500000",
"333333533333455535050554350554445542445554446455444444B5355D4335525434B43544344445554644B444444445454425544455544445446D35500500",
"3353353333333550535333435003553444542445553444544444494D43346355524B4D345544344445443444443434443445544255445534DAD44B435D500000",
"333355333455550553355543500555544544542555455455444444BDD33345555244B4D355454443444444B44444444444545445555355543465444434500000",
"5333534355355055555533433000553445524442554444435444444B4555535555554B345545B4444544434443444B44454554450554555B44A54444D4500000",
"55355355355553535355053553035554445445255554346B444446343543355524554D4355554434444555544444444454455445555555544464434354450000",
"0355555355355050300334535530555344442452455344445544443355BD455555453434555444544B445554B443445454455445505550544344444544400500",
"05303555555550505503543535530545344454442554D44655444B45555435552254534355544454444435554444444545443535555500554B44B44549500000",
"305003055355553053053430530555554554455445554D445544445553553055225455B4554445434443544544444454444555555530000354A4444544505000",
"53550030550530035003535000005055444552442555444B6444443550030055524445545445D4554434445444B44444B4435555500030505546445544500000",
"555535300500055030334500505505355544224444554D44FB444303050005522525445B44434455545545443444434445555555030300035344394544500500",
"5053555035555030035543503500050555455445555434449D44B4500300555522250544554435445454444554443444443455550005030005543A4544300000",
"5355055050005030353553050055005553445442445544B446444550055005052555644454455554454344454434444334555300030030500535544543500000",
"0035535005530555053555500300000555454445544544D4444443303053055200564444354555445454544543443434343355000050050053B4444333350050",
"355555530050550305345030005003003555445554445546444443000555055205444444555555454454344553434345435500050000000053D33B3333505000",
"0553055050053030535433055000000005545454444554464B4435000355055054445DD455555244545555355534355335503003503003505633433535500000",
"0505503500350505555355030503500505555555445443464434305000505555DD44D44555444254544555444554543555030503300005505B34335353050500",
"5350550005050350355555005000030030544545444435464AD4530000005555444B443555445244244445355553B6433500050300503500D333335335500000",
"5053053050055030534500350030000000555455444444344464505005005554544D45454524455445444445554BB63550300555530300536434355355000050",
"50555050503030550355300050050300035554554444545344A35000000550555434455445442522544454543346B45300003535D5505553B343333435005000",
"0530030050500500355500050030055300555444344444444644500300055054344345455444522544444434334B635500534556450555363433353353050000",
"00550500305500005553000505003350055555445444443344DF35000305505444344545454455244543434333BA635500046554335555DB4333433550000000",
"05500500505035353550055000005335530553445443A444536F30500035555554554544444425549344B4334B46B50000556343D45553643333335500500500",
"000300055503530535553000303335335055544454444944354930005055554555444444444455544344333434B6500000054334433553B34334335000030000",
"000050350350300355500000055D35DD330553444444444444450000035555555543444444542554434333433B6B50500300533533055DB43353535500500000",
"055003353003003553500500033D35D3D33055444444B44434435503355555555544444443444554433343B44B66500035000553550036535335355550000000",
"000533553503035355035050533DDD33D33055544B44944434453000354555555344444444444553445334334B630000530005333335DB433353353555005000",
"0053335530503003550050055DD3DDBD3355355444444B44B443000555550552544494444344355533343343B6B4000500503335335363343355343003550000",
"053353353503005355300005333DBDD355533554B444444444435055335505255444B44444445553535333344B655003330003553555B4334333D35005350000",
"03555355503530355305005333DDD334335333544444444B44BB50353555024544449444433433555534343B6635533355033555005D43333353435000000000",
"50353355305303533335030555DBD4333533335444444444444B5053550255445444444A434533555534B35BAB30533333533350003635353535350000000500",
"0305355355300033D3350303353DD333553333534443AA4434BA3033550255445444444B5433433533534334B65533535333335005B433433535550005003505",
"003005535353353553335533535DBD5355B35554B34445434BAB353500525554434444A44533335555533346BD55353353333330036333335335500500000535",
"5053053353353333553335533533D33553355555443435553BB6B550055052554449439435553553533433BB65553333333333355DB453535355000300305350",
"30035333353353333535335535D3535355B5000344334454BDBAB550005052453444444330543555334B344B6505335333333333364553353555000000005550",
"300033535333353335535033553D33555335000335443BBBDBBB450005522445543444B50033535535343B6A35535533335334333B3533533500050000053300",
"300305533533D3D53305335533533D33533050055333BB3D4B6B3000005555455444444005535355334334B63005533533333333333533553500000000550500",
"5000305333333333335030553333343553350003303B3433BB4B50000055254444B443500033553533334B6B5553353333333333434335335500003000500000",
"330300553D33433335330005355333353335000305543B3BB4BB50500005455544445530053435533434B6B63500353333353533335353535000500000000000",
"030053053333334333330303533553553330050330033B43BBB455000055552543443300034335533343B6633553533333433535353535355000000050050000",
"530533055B64333353535000333055355330000330555B3334BB500000055554344330005333553534334BAB3355335333333333555353350000050000000000",
"0535D3555533B433333535003505303033550000303055333B4350050055555554330000533553534334B6D33335353333343364333353550500003500000500",
"035355000555DB333333003000035305333000005300554B43B3050000055555553005555B4555333334B63333535333334334B3553553550000005500500000",
"0000050000555D3335500003503003533350050003030533BB45500000000555000533553433355343BB6B433453353533335635535335500300500000000000",
"3350500500555555555333003000305333500030005033554B3000005000000000535533D35355333446B4533355353335554B55353533000000000000000000",
"0000050000003505333353003500355335000000000030055455000050005000033535533355334333B66335535553535553B453535535050000000000005001",
"053000005050000033350030330353553500000000350300035500003050000555335333443553334B4BB355350053335553D555535355003000000000500350",
"033000050000000350033053000305533000530003500035300003335005355535533334B353553434B64553350335550053B553353350000500050035001100",
"00505000000505003353033000003553300030500030000305000533333553355055553D5355533334B630035003500350365553553500500000000005500000",
"03300000015000033030000000535553305003003550003000330353335055500000553B453334334B6B55053053000530335553535503003005035050000300",
"0550050505030003050330530030355330003353530000503300305333300500000005345355334336BD50000030050053635535533000000000000003000050",
"00500300150000053030035500305553553555535000300350030335335000000000053355353334BB6400000530000033435533555000500500000000050330",
"0000050030000005330055300053555330053035050000003030035333300000005053D3535334334B6500000300000553355355330000001000505005000051"
};
